{
    "variables": {
        "wifi_name": "",
        "wifi_password": "",
        "provision_key" : "",
        "provision_secret": "",
        "secret_salt": "",
        "home": "{{env `HOME`}}"
    },
    "builders": [
        {
            "type": "arm",
            "file_urls": [
                "https://downloads.raspberrypi.org/raspios_lite_armhf/images/raspios_lite_armhf-2022-09-07/2022-09-06-raspios-bullseye-armhf-lite.img.xz"
            ],
            "file_checksum_url": "https://downloads.raspberrypi.org/raspios_lite_armhf/images/raspios_lite_armhf-2022-09-07/2022-09-06-raspios-bullseye-armhf-lite.img.xz.sha256",
            "file_checksum_type": "sha256",
            "file_target_extension": "xz",
            "file_unarchive_cmd": ["xz", "-dv", "$ARCHIVE_PATH"],
            "image_build_method": "reuse",
            "image_path": "golden-image.img",
            "image_size": "2G",
            "image_type": "dos",
            "image_partitions": [
                {
                    "name": "boot",
                    "type": "c",
                    "start_sector": "8192",
                    "filesystem": "vfat",
                    "size": "256M",
                    "mountpoint": "/boot"
                },
                {
                    "name": "root",
                    "type": "83",
                    "start_sector": "532480",
                    "filesystem": "ext4",
                    "size": "0",
                    "mountpoint": "/"
                }
            ],
            "image_chroot_env": [
                "PATH=/usr/local/bin:/usr/local/sbin:/usr/bin:/usr/sbin:/bin:/sbin"
            ]
        }
    ],
    "provisioners": [ 
        {
            "type": "shell",
            "inline": [
                "touch /boot/ssh"
            ]
        },
        {
            "type": "file",
            "source": "/build/boot/config.txt",
            "destination": "/boot/config.txt"
        },
        {
            "type": "shell",
            "inline": [
                "echo dtoverlay=dwc2 >> /boot/config.txt"
            ]
        },
        {
            "type": "shell",
            "inline": [
                "sed -i 's/rootwait/rootwait modules-load=dwc2,g_ether cgroup_memory=1 cgroup_enable=memory elevator=deadline systemd.restore_state=0 rfkill.default_state=1/g' /boot/cmdline.txt",
                "sed -i 's/console=serial0,115200 console=tty1 //' /boot/cmdline.txt"
            ]
        },
        {
            "type": "shell",
            "inline": [
                "ln -s /lib/systemd/system/multi-user.target /etc/systemd/system/default.target",
                "rm -f /etc/localtime",
                "ln -s /usr/share/zoneinfo/America/Chicago /etc/localtime",
                "rm -f /etc/timezone"
            ]
        },
        {
            "type": "shell",
            "inline": [
                "sed -i 's/gb/us/' /etc/default/keyboard"
            ]
        },       
        {
            "type": "shell",
            "inline": [
                "echo 'ctrl_interface=DIR=/var/run/wpa_supplicant GROUP=netdev' >> /boot/wpa_supplicant.conf",
                "echo 'update_config=1' >> /boot/wpa_supplicant.conf",
                "echo 'country=US' >> /boot/wpa_supplicant.conf",
                "echo 'network={' >> /boot/wpa_supplicant.conf",
                "echo '    ssid=\"{{user `wifi_name`}}\"' >> /boot/wpa_supplicant.conf",
                "echo '    psk=\"{{user `wifi_password`}}\"' >> /boot/wpa_supplicant.conf",
                "echo '    key_mgmt=WPA-PSK' >> /boot/wpa_supplicant.conf",
                "echo '}' >> /boot/wpa_supplicant.conf"
            ]
        },
        {
            "type": "file",
            "source": "/build/files/ctzpos-cups_1.2.6-0_armhf.deb",
            "destination": "/tmp/ctzpos-cups_1.2.6-0_armhf.deb"
        },
        {
            "type": "file",
            "source": "/build/files/etc_cups_master.tgz",
            "destination": "/tmp/etc_cups_master.tgz"
        },
        {
            "type": "shell",
            "inline": [
                "apt update",
                "apt install --yes iptables dnsmasq ntp hostapd python3-pip python3-venv git --fix-missing",
                "systemctl disable hostapd",
                "pip install --upgrade pip",
                "apt remove --purge bluez mkvtoolnix libgstreamer1.0-0 libc6-dbg manpages-dev -y",
                "apt install libcups2-dev -y",
                "pip install pycups",
                "apt remove --purge dpkg-dev libfreetype-dev linux-libc-dev libstdc++-10-dev libgcc-10-dev libcups2-dev gcc g++ -y",
                "apt install cups -y",
                "apt autoremove --purge -y",
                "apt clean -y",
                "apt install -y /tmp/ctzpos-cups_1.2.6-0_armhf.deb",
                "mv /etc/cups /etc/cups.save",
                "tar xvf /tmp/etc_cups_master.tgz -C /etc",
                "df -h 2>&1"
            ]
        }
    ]
}
